<?xml version="1.0" encoding="utf-8"?>
<!-- Generator: Adobe Illustrator 23.0.3, SVG Export Plug-In . SVG Version: 6.00 Build 0)  -->
<svg version="1.1" id="Слой_1" xmlns="http://www.w3.org/2000/svg" xmlns:xlink="http://www.w3.org/1999/xlink" x="0px" y="0px"
	 viewBox="0 0 30 30" style="enable-background:new 0 0 30 30;" xml:space="preserve">
<style type="text/css">
	.st0{fill:none;stroke:#000000;stroke-miterlimit:10;}
	.st1{fill-rule:evenodd;clip-rule:evenodd;fill:none;stroke:#000000;stroke-miterlimit:10;}
</style>
<g>
	<path d="M15,26c-2.9,0-3.2,0-4.4-0.1c-1.1,0-1.9-0.2-2.7-0.5s-1.4-0.7-2-1.3c-0.6-0.6-1-1.2-1.3-2c-0.3-0.8-0.5-1.6-0.5-2.7
		C4,18.2,4,17.9,4,15c0-2.9,0-3.2,0.1-4.4c0-1.1,0.2-1.9,0.5-2.7c0.3-0.8,0.7-1.4,1.3-2c0.6-0.6,1.2-1,2-1.3C8.7,4.2,9.6,4.1,10.6,4
		C11.8,4,12.1,4,15,4s3.2,0,4.4,0.1c1.1,0,1.9,0.2,2.7,0.5c0.8,0.3,1.4,0.7,2,1.3c0.6,0.6,1,1.2,1.3,2c0.3,0.8,0.5,1.6,0.5,2.7
		C26,11.8,26,12.1,26,15c0,2.9,0,3.2-0.1,4.4c0,1.1-0.2,1.9-0.5,2.7c-0.3,0.8-0.7,1.4-1.3,2c-0.6,0.6-1.2,1-2,1.3
		c-0.8,0.3-1.6,0.5-2.7,0.5C18.2,26,17.9,26,15,26z M15,5c-2.8,0-3.2,0-4.3,0.1c-1,0-1.7,0.2-2.4,0.5C7.6,5.7,7.1,6.1,6.6,6.6
		c-0.5,0.5-0.8,1-1.1,1.7C5.2,9,5.1,9.7,5,10.7C5,11.8,5,12.2,5,15c0,2.8,0,3.2,0.1,4.3c0,1,0.2,1.7,0.5,2.4
		c0.3,0.7,0.6,1.2,1.1,1.7c0.5,0.5,1,0.8,1.7,1.1c0.7,0.3,1.4,0.4,2.4,0.5C11.8,25,12.2,25,15,25c2.8,0,3.2,0,4.3-0.1
		c1,0,1.7-0.2,2.4-0.5c0.7-0.3,1.2-0.6,1.7-1.1c0.5-0.5,0.8-1,1.1-1.7c0.3-0.7,0.4-1.4,0.5-2.4C25,18.2,25,17.8,25,15
		c0-2.8,0-3.2-0.1-4.3c0-1-0.2-1.7-0.5-2.4c-0.3-0.7-0.6-1.2-1.1-1.7c-0.5-0.5-1-0.8-1.7-1.1C21,5.2,20.3,5.1,19.3,5
		C18.2,5,17.8,5,15,5z"/>
	<path d="M15,20.9c-3.3,0-5.9-2.6-5.9-5.9c0-3.3,2.6-5.9,5.9-5.9c3.3,0,5.9,2.6,5.9,5.9C20.9,18.3,18.3,20.9,15,20.9z M15,10.1
		c-2.7,0-4.9,2.2-4.9,4.9c0,2.7,2.2,4.9,4.9,4.9c2.7,0,4.9-2.2,4.9-4.9C19.9,12.3,17.7,10.1,15,10.1z"/>
	<circle cx="20.6" cy="9.4" r="1.3"/>
</g>
</svg>
