<svg width="18" height="40" viewBox="0 0 18 40" fill="none" xmlns="http://www.w3.org/2000/svg">
<path d="M17.0435 21.7388H0V39.854H3.41022V25.3594H17.0435" fill="black"/>
<path d="M17.0435 0H0V18.1152H3.41022V3.62062H17.0435" fill="black"/>
</svg>
