<svg width="18" height="19" viewBox="0 0 18 19" fill="none" xmlns="http://www.w3.org/2000/svg">
<path d="M0.983095 3.51709C1.69431 3.51709 2.40553 3.51709 3.11674 3.51709C3.21694 3.51709 3.3191 3.51709 3.4193 3.51709C3.67078 3.51709 3.93601 3.41037 4.1148 3.23885C4.28573 3.07305 4.41343 2.80243 4.40164 2.56421C4.38985 2.31837 4.30734 2.06299 4.1148 1.88957C3.92226 1.71805 3.6865 1.61133 3.4193 1.61133C2.70809 1.61133 1.99687 1.61133 1.28566 1.61133C1.18546 1.61133 1.08329 1.61133 0.983095 1.61133C0.731616 1.61133 0.466384 1.71805 0.287598 1.88957C0.116671 2.05537 -0.0110335 2.32599 0.000754559 2.56421C0.0125427 2.81005 0.0950593 3.06542 0.287598 3.23885C0.480137 3.40846 0.717863 3.51709 0.983095 3.51709Z" fill="white"/>
<path d="M6.71991 3.51671C7.06373 3.51671 7.40755 3.51671 7.75137 3.51671C8.56868 3.51671 9.38795 3.51671 10.2053 3.51671C11.1935 3.51671 12.1837 3.51671 13.1719 3.51671C14.0325 3.51671 14.893 3.51671 15.7535 3.51671C16.1681 3.51671 16.5846 3.52243 16.9991 3.51671C17.005 3.51671 17.0109 3.51671 17.0168 3.51671C17.2683 3.51671 17.5335 3.40999 17.7123 3.23847C17.8832 3.07267 18.0109 2.80205 17.9992 2.56383C17.9874 2.31798 17.9049 2.06261 17.7123 1.88918C17.5198 1.71766 17.284 1.61094 17.0168 1.61094C16.673 1.61094 16.3292 1.61094 15.9854 1.61094C15.168 1.61094 14.3488 1.61094 13.5315 1.61094C12.5432 1.61094 11.553 1.61094 10.5648 1.61094C9.70427 1.61094 8.84373 1.61094 7.9832 1.61094C7.56865 1.61094 7.15214 1.60522 6.73759 1.61094C6.7317 1.61094 6.72581 1.61094 6.71991 1.61094C6.46843 1.61094 6.2032 1.71766 6.02441 1.88918C5.85349 2.05498 5.72578 2.3256 5.73757 2.56383C5.74936 2.80967 5.83188 3.06504 6.02441 3.23847C6.21695 3.40808 6.45468 3.51671 6.71991 3.51671Z" fill="white"/>
<path d="M5.06995 3.21404C4.99726 3.21404 4.92456 3.20832 4.85187 3.2007C4.93832 3.21213 5.02673 3.22357 5.11317 3.235C4.96386 3.21404 4.82044 3.17592 4.68094 3.12066C4.75953 3.15305 4.83812 3.18545 4.91474 3.21594C4.78704 3.16258 4.66916 3.09398 4.55913 3.01394C4.62593 3.06348 4.69077 3.11303 4.75757 3.16258C4.64165 3.07492 4.53949 2.97582 4.44911 2.86338C4.50019 2.92818 4.55127 2.99107 4.60236 3.05586C4.51787 2.94914 4.44911 2.83289 4.3941 2.71092C4.4275 2.78715 4.4609 2.86338 4.49233 2.93771C4.43339 2.8024 4.3941 2.66328 4.37445 2.51844C4.38624 2.60229 4.39803 2.68805 4.40982 2.77191C4.39214 2.63088 4.39214 2.48985 4.40982 2.34883C4.39803 2.43268 4.38624 2.51844 4.37445 2.60229C4.39606 2.45746 4.43536 2.31834 4.49233 2.18303C4.45893 2.25926 4.42553 2.33549 4.3941 2.40981C4.44911 2.28594 4.51984 2.17159 4.60236 2.06487C4.55127 2.12967 4.50019 2.19256 4.44911 2.25735C4.53949 2.14491 4.64165 2.04581 4.75757 1.95815C4.69077 2.0077 4.62593 2.05725 4.55913 2.1068C4.66916 2.02485 4.789 1.95815 4.91474 1.90479C4.83615 1.93719 4.75757 1.96959 4.68094 2.00008C4.82044 1.9429 4.96386 1.90479 5.11317 1.88573C5.02673 1.89717 4.93832 1.9086 4.85187 1.92004C4.99726 1.90288 5.14264 1.90288 5.28803 1.92004C5.20159 1.9086 5.11317 1.89717 5.02673 1.88573C5.17604 1.9067 5.31947 1.94481 5.45896 2.00008C5.38037 1.96768 5.30178 1.93528 5.22516 1.90479C5.35287 1.95815 5.47075 2.02676 5.58077 2.1068C5.51397 2.05725 5.44914 2.0077 5.38234 1.95815C5.49825 2.04581 5.60042 2.14491 5.69079 2.25735C5.63971 2.19256 5.58863 2.12967 5.53755 2.06487C5.62203 2.17159 5.69079 2.28785 5.7458 2.40981C5.7124 2.33358 5.679 2.25735 5.64757 2.18303C5.70651 2.31834 5.7458 2.45746 5.76545 2.60229C5.75366 2.51844 5.74187 2.43268 5.73008 2.34883C5.74777 2.48985 5.74777 2.63088 5.73008 2.77191C5.74187 2.68805 5.75366 2.60229 5.76545 2.51844C5.74384 2.66328 5.70454 2.8024 5.64757 2.93771C5.68097 2.86148 5.71437 2.78525 5.7458 2.71092C5.69079 2.83479 5.62006 2.94914 5.53755 3.05586C5.58863 2.99107 5.63971 2.92818 5.69079 2.86338C5.60042 2.97582 5.49825 3.07492 5.38234 3.16258C5.44914 3.11303 5.51397 3.06348 5.58077 3.01394C5.47075 3.09588 5.3509 3.16258 5.22516 3.21594C5.30375 3.18355 5.38234 3.15115 5.45896 3.12066C5.31947 3.17783 5.17604 3.21594 5.02673 3.235C5.11317 3.22357 5.20159 3.21213 5.28803 3.2007C5.21534 3.20832 5.14264 3.21404 5.06995 3.21404C4.81651 3.21594 4.5552 3.31885 4.37445 3.49228C4.20353 3.65808 4.07582 3.92869 4.08761 4.16691C4.0994 4.41275 4.18191 4.66813 4.37445 4.84155C4.56503 5.01116 4.80275 5.1236 5.06995 5.11979C5.33322 5.11788 5.61024 5.08358 5.85975 5.00163C6.09159 4.9254 6.33128 4.82821 6.53168 4.68718C6.66135 4.59761 6.79298 4.50232 6.9089 4.3956C7.03071 4.28316 7.13287 4.14786 7.23307 4.01826C7.38238 3.82197 7.48258 3.60281 7.56903 3.37412C7.74782 2.90721 7.74978 2.34502 7.61029 1.86667C7.54152 1.62846 7.43543 1.38833 7.29201 1.18251C7.15841 0.988124 7.00124 0.791832 6.81263 0.641278C6.68885 0.542179 6.56115 0.44308 6.42558 0.363039C6.28216 0.279186 6.12499 0.218202 5.97174 0.159124C5.72812 0.0638363 5.47075 0.0276271 5.20944 0.00666387C4.70256 -0.0333568 4.15048 0.109574 3.71825 0.363039C3.29781 0.610786 2.91666 0.986219 2.71037 1.42454C2.64357 1.56747 2.5748 1.71421 2.53158 1.86667C2.48639 2.02295 2.46871 2.18684 2.4471 2.34883C2.41566 2.60801 2.4471 2.87291 2.50014 3.12828C2.60427 3.6333 2.91862 4.15357 3.32924 4.47946C3.45891 4.58237 3.59447 4.68718 3.73986 4.77104C3.89114 4.85679 4.05814 4.92159 4.22121 4.98067C4.4884 5.07977 4.789 5.11788 5.07192 5.11979C5.3234 5.12169 5.59059 5.01116 5.76741 4.84155C5.93834 4.67575 6.06605 4.40513 6.05426 4.16691C6.02872 3.64664 5.62006 3.21785 5.06995 3.21404Z" fill="white"/>
<path d="M14.3825 10.0347C15.1527 10.0347 15.9228 10.0347 16.691 10.0347C16.7991 10.0347 16.9071 10.0347 17.0152 10.0347C17.2667 10.0347 17.5319 9.92796 17.7107 9.75644C17.8816 9.59064 18.0093 9.32002 17.9975 9.0818C17.9857 8.83595 17.9032 8.58058 17.7107 8.40715C17.5181 8.23563 17.2824 8.12891 17.0152 8.12891C16.245 8.12891 15.4749 8.12891 14.7067 8.12891C14.5986 8.12891 14.4906 8.12891 14.3825 8.12891C14.131 8.12891 13.8658 8.23563 13.687 8.40715C13.5161 8.57295 13.3884 8.84357 13.4002 9.0818C13.412 9.32764 13.4945 9.58302 13.687 9.75644C13.8796 9.92606 14.1173 10.0347 14.3825 10.0347Z" fill="white"/>
<path d="M0.983096 10.0343C1.31906 10.0343 1.65698 10.0343 1.99294 10.0343C2.79453 10.0343 3.59612 10.0343 4.39771 10.0343C5.37023 10.0343 6.34275 10.0343 7.31527 10.0343C8.15615 10.0343 8.99704 10.0343 9.83792 10.0343C10.2466 10.0343 10.6552 10.04 11.0639 10.0343C11.0698 10.0343 11.0757 10.0343 11.0816 10.0343C11.333 10.0343 11.5983 9.92756 11.7771 9.75604C11.948 9.59024 12.0757 9.31962 12.0639 9.0814C12.0521 8.83556 11.9696 8.58018 11.7771 8.40676C11.5845 8.23524 11.3488 8.12852 11.0816 8.12852C10.7456 8.12852 10.4077 8.12852 10.0717 8.12852C9.27013 8.12852 8.46854 8.12852 7.66694 8.12852C6.69443 8.12852 5.72191 8.12852 4.74939 8.12852C3.90851 8.12852 3.06762 8.12852 2.22674 8.12852C1.81809 8.12852 1.40943 8.1228 1.00078 8.12852C0.994884 8.12852 0.98899 8.12852 0.983096 8.12852C0.731616 8.12852 0.466384 8.23524 0.287598 8.40676C0.116671 8.57256 -0.0110335 8.84318 0.000754559 9.0814C0.0125427 9.32724 0.0950593 9.58261 0.287598 9.75604C0.480137 9.92565 0.717864 10.0343 0.983096 10.0343Z" fill="white"/>
<path d="M12.7321 9.73164C12.6594 9.73164 12.5867 9.72592 12.514 9.7183C12.6004 9.72973 12.6888 9.74117 12.7753 9.7526C12.626 9.73164 12.4826 9.69352 12.3431 9.63825C12.4216 9.67065 12.5002 9.70305 12.5769 9.73354C12.4492 9.68018 12.3313 9.61157 12.2213 9.53153C12.288 9.58108 12.3529 9.63063 12.4197 9.68018C12.3038 9.59252 12.2016 9.49342 12.1112 9.38098C12.1623 9.44577 12.2134 9.50866 12.2645 9.57346C12.18 9.46674 12.1112 9.35048 12.0562 9.22852C12.0896 9.30475 12.123 9.38098 12.1545 9.4553C12.0955 9.31999 12.0562 9.18087 12.0366 9.03603C12.0484 9.11989 12.0601 9.20565 12.0719 9.2895C12.0543 9.14847 12.0543 9.00745 12.0719 8.86642C12.0601 8.95027 12.0484 9.03603 12.0366 9.11989C12.0582 8.97505 12.0975 8.83593 12.1545 8.70062C12.1211 8.77685 12.0877 8.85308 12.0562 8.92741C12.1112 8.80353 12.182 8.68919 12.2645 8.58246C12.2134 8.64726 12.1623 8.71015 12.1112 8.77494C12.2016 8.6625 12.3038 8.56341 12.4197 8.47574C12.3529 8.52529 12.288 8.57484 12.2213 8.62439C12.3313 8.54244 12.4511 8.47574 12.5769 8.42238C12.4983 8.45478 12.4197 8.48717 12.3431 8.51767C12.4826 8.46049 12.626 8.42238 12.7753 8.40332C12.6888 8.41476 12.6004 8.42619 12.514 8.43762C12.6594 8.42047 12.8048 8.42047 12.9501 8.43762C12.8637 8.42619 12.7753 8.41476 12.6888 8.40332C12.8382 8.42428 12.9816 8.4624 13.1211 8.51767C13.0425 8.48527 12.9639 8.45287 12.8873 8.42238C13.015 8.47574 13.1329 8.54435 13.2429 8.62439C13.1761 8.57484 13.1112 8.52529 13.0444 8.47574C13.1604 8.56341 13.2625 8.6625 13.3529 8.77494C13.3018 8.71015 13.2507 8.64726 13.1997 8.58246C13.2841 8.68919 13.3529 8.80544 13.4079 8.92741C13.3745 8.85118 13.3411 8.77494 13.3097 8.70062C13.3686 8.83593 13.4079 8.97505 13.4276 9.11989C13.4158 9.03603 13.404 8.95027 13.3922 8.86642C13.4099 9.00745 13.4099 9.14847 13.3922 9.2895C13.404 9.20565 13.4158 9.11989 13.4276 9.03603C13.406 9.18087 13.3667 9.31999 13.3097 9.4553C13.3431 9.37907 13.3765 9.30284 13.4079 9.22852C13.3529 9.35239 13.2822 9.46674 13.1997 9.57346C13.2507 9.50866 13.3018 9.44577 13.3529 9.38098C13.2625 9.49342 13.1604 9.59252 13.0444 9.68018C13.1112 9.63063 13.1761 9.58108 13.2429 9.53153C13.1329 9.61348 13.013 9.68018 12.8873 9.73354C12.9659 9.70114 13.0445 9.66875 13.1211 9.63825C12.9816 9.69543 12.8382 9.73354 12.6888 9.7526C12.7753 9.74117 12.8637 9.72973 12.9501 9.7183C12.8775 9.72592 12.8048 9.73164 12.7321 9.73164C12.4786 9.73354 12.2173 9.83645 12.0366 10.0099C11.8656 10.1757 11.7379 10.4463 11.7497 10.6845C11.7615 10.9304 11.844 11.1857 12.0366 11.3592C12.2271 11.5288 12.4649 11.6412 12.7321 11.6374C12.9953 11.6355 13.2724 11.6012 13.5219 11.5192C13.7537 11.443 13.9934 11.3458 14.1938 11.2048C14.3235 11.1152 14.4551 11.0199 14.571 10.9132C14.6928 10.8008 14.795 10.6655 14.8952 10.5359C15.0445 10.3396 15.1447 10.1204 15.2311 9.89172C15.4099 9.42481 15.4119 8.86261 15.2724 8.38426C15.2036 8.14604 15.0975 7.90592 14.9541 7.7001C14.8186 7.5038 14.6614 7.30941 14.4728 7.15886C14.349 7.05976 14.2213 6.96066 14.0857 6.88062C13.9423 6.79677 13.7851 6.73578 13.6319 6.6767C13.3883 6.58141 13.1309 6.54521 12.8696 6.52424C12.3627 6.48422 11.8106 6.62715 11.3784 6.88062C10.958 7.12837 10.5768 7.5038 10.3705 7.94213C10.3037 8.08506 10.235 8.2318 10.1917 8.38426C10.1465 8.54054 10.1289 8.70443 10.1073 8.86642C10.0758 9.1256 10.1073 9.3905 10.1603 9.64588C10.2644 10.1509 10.5788 10.6712 10.9894 10.9971C11.1191 11.1 11.2546 11.2048 11.4 11.2886C11.5513 11.3744 11.7183 11.4392 11.8814 11.4983C12.1486 11.5974 12.4492 11.6355 12.7321 11.6374C12.9835 11.6393 13.2507 11.5288 13.4276 11.3592C13.5985 11.1934 13.7262 10.9227 13.7144 10.6845C13.6908 10.1642 13.2822 9.73545 12.7321 9.73164Z" fill="white"/>
<path d="M9.86347 16.553C10.0992 16.553 10.337 16.553 10.5727 16.553C11.1405 16.553 11.7103 16.553 12.2781 16.553C12.9657 16.553 13.6553 16.553 14.3429 16.553C14.9382 16.553 15.5335 16.553 16.1288 16.553C16.4196 16.553 16.7104 16.5568 17.0012 16.553C17.0051 16.553 17.009 16.553 17.0149 16.553C17.2664 16.553 17.5316 16.4462 17.7104 16.2747C17.8813 16.1089 18.009 15.8383 17.9973 15.6001C17.9855 15.3542 17.9029 15.0989 17.7104 14.9254C17.5179 14.7539 17.2821 14.6472 17.0149 14.6472C16.7792 14.6472 16.5414 14.6472 16.3057 14.6472C15.7379 14.6472 15.1681 14.6472 14.6003 14.6472C13.9127 14.6472 13.2231 14.6472 12.5354 14.6472C11.9401 14.6472 11.3448 14.6472 10.7495 14.6472C10.4588 14.6472 10.168 14.6434 9.87722 14.6472C9.87329 14.6472 9.86936 14.6472 9.86347 14.6472C9.61199 14.6472 9.34676 14.7539 9.16797 14.9254C8.99704 15.0912 8.86934 15.3619 8.88113 15.6001C8.89291 15.8459 8.97543 16.1013 9.16797 16.2747C9.36051 16.4443 9.59823 16.553 9.86347 16.553Z" fill="white"/>
<path d="M0.983096 16.5522C1.60983 16.5522 2.23656 16.5522 2.86526 16.5522C3.86921 16.5522 4.8712 16.5522 5.87516 16.5522C6.10502 16.5522 6.33489 16.5522 6.5628 16.5522C6.81427 16.5522 7.07951 16.4455 7.25829 16.274C7.42922 16.1082 7.55692 15.8376 7.54514 15.5994C7.53335 15.3535 7.45083 15.0981 7.25829 14.9247C7.06575 14.7532 6.82999 14.6465 6.5628 14.6465C5.93606 14.6465 5.30933 14.6465 4.68063 14.6465C3.67668 14.6465 2.67469 14.6465 1.67073 14.6465C1.44087 14.6465 1.211 14.6465 0.983096 14.6465C0.731616 14.6465 0.466384 14.7532 0.287598 14.9247C0.116671 15.0905 -0.0110335 15.3611 0.000754559 15.5994C0.0125427 15.8452 0.0950593 16.1006 0.287598 16.274C0.480137 16.4436 0.717864 16.5522 0.983096 16.5522Z" fill="white"/>
<path d="M8.21303 16.2492C8.14034 16.2492 8.06764 16.2435 7.99495 16.2359C8.0814 16.2473 8.16981 16.2587 8.25625 16.2702C8.10694 16.2492 7.96352 16.2111 7.82402 16.1558C7.90261 16.1882 7.9812 16.2206 8.05782 16.2511C7.93012 16.1978 7.81224 16.1292 7.70221 16.0491C7.76901 16.0987 7.83385 16.1482 7.90065 16.1978C7.78473 16.1101 7.68257 16.011 7.59219 15.8986C7.64327 15.9634 7.69435 16.0262 7.74544 16.091C7.66095 15.9843 7.59219 15.8681 7.53718 15.7461C7.57058 15.8223 7.60398 15.8986 7.63541 15.9729C7.57647 15.8376 7.53718 15.6985 7.51753 15.5536C7.52932 15.6375 7.54111 15.7232 7.5529 15.8071C7.53521 15.6661 7.53521 15.525 7.5529 15.384C7.54111 15.4679 7.52932 15.5536 7.51753 15.6375C7.53914 15.4926 7.57844 15.3535 7.63541 15.2182C7.60201 15.2944 7.56861 15.3707 7.53718 15.445C7.59219 15.3211 7.66292 15.2068 7.74544 15.1C7.69435 15.1648 7.64327 15.2277 7.59219 15.2925C7.68257 15.1801 7.78473 15.081 7.90065 14.9933C7.83385 15.0429 7.76901 15.0924 7.70221 15.142C7.81224 15.06 7.93208 14.9933 8.05782 14.94C7.97923 14.9724 7.90065 15.0048 7.82402 15.0352C7.96352 14.9781 8.10694 14.94 8.25625 14.9209C8.16981 14.9323 8.0814 14.9438 7.99495 14.9552C8.14034 14.9381 8.28572 14.9381 8.43111 14.9552C8.34466 14.9438 8.25625 14.9323 8.16981 14.9209C8.31912 14.9419 8.46255 14.98 8.60204 15.0352C8.52345 15.0029 8.44486 14.9705 8.36824 14.94C8.49595 14.9933 8.61383 15.0619 8.72385 15.142C8.65705 15.0924 8.59222 15.0429 8.52542 14.9933C8.64133 15.081 8.7435 15.1801 8.83387 15.2925C8.78279 15.2277 8.73171 15.1648 8.68063 15.1C8.76511 15.2068 8.83387 15.323 8.88888 15.445C8.85548 15.3688 8.82208 15.2925 8.79065 15.2182C8.84959 15.3535 8.88888 15.4926 8.90853 15.6375C8.89674 15.5536 8.88495 15.4679 8.87316 15.384C8.89085 15.525 8.89085 15.6661 8.87316 15.8071C8.88495 15.7232 8.89674 15.6375 8.90853 15.5536C8.88692 15.6985 8.84762 15.8376 8.79065 15.9729C8.82405 15.8967 8.85745 15.8204 8.88888 15.7461C8.83387 15.87 8.76314 15.9843 8.68063 16.091C8.73171 16.0262 8.78279 15.9634 8.83387 15.8986C8.7435 16.011 8.64133 16.1101 8.52542 16.1978C8.59222 16.1482 8.65705 16.0987 8.72385 16.0491C8.61383 16.1311 8.49398 16.1978 8.36824 16.2511C8.44683 16.2187 8.52542 16.1863 8.60204 16.1558C8.46255 16.213 8.31912 16.2511 8.16981 16.2702C8.25625 16.2587 8.34466 16.2473 8.43111 16.2359C8.35842 16.2435 8.28572 16.2492 8.21303 16.2492C7.95959 16.2511 7.69828 16.354 7.51753 16.5275C7.3466 16.6933 7.2189 16.9639 7.23069 17.2021C7.24248 17.4479 7.32499 17.7033 7.51753 17.8767C7.70811 18.0464 7.94583 18.1588 8.21303 18.155C8.4763 18.1531 8.75332 18.1188 9.00283 18.0368C9.23467 17.9606 9.47436 17.8634 9.67476 17.7224C9.80443 17.6328 9.93606 17.5375 10.052 17.4308C10.1738 17.3184 10.2759 17.183 10.3761 17.0535C10.5255 16.8572 10.6257 16.638 10.7121 16.4093C10.8909 15.9424 10.8929 15.3802 10.7534 14.9018C10.6846 14.6636 10.5785 14.4235 10.4351 14.2177C10.2995 14.0214 10.1424 13.827 9.95374 13.6764C9.82997 13.5773 9.70226 13.4782 9.5667 13.3982C9.42328 13.3143 9.2661 13.2534 9.11286 13.1943C8.86924 13.099 8.61186 13.0628 8.35056 13.0418C7.84367 13.0018 7.29159 13.1447 6.85936 13.3982C6.43892 13.6459 6.05777 14.0214 5.85148 14.4597C5.78468 14.6026 5.71592 14.7494 5.67269 14.9018C5.62751 15.0581 5.60982 15.222 5.58821 15.384C5.55678 15.6432 5.58821 15.9081 5.64126 16.1635C5.74539 16.6685 6.05974 17.1888 6.47036 17.5146C6.60002 17.6176 6.73559 17.7224 6.88097 17.8062C7.03226 17.892 7.19925 17.9568 7.36232 18.0159C7.62952 18.115 7.93012 18.1531 8.21303 18.155C8.46451 18.1569 8.73171 18.0464 8.90853 17.8767C9.07946 17.7109 9.20716 17.4403 9.19537 17.2021C9.1718 16.6818 8.76314 16.253 8.21303 16.2492Z" fill="white"/>
</svg>
