<?xml version="1.0" encoding="utf-8"?>
<!-- Generator: Adobe Illustrator 23.0.3, SVG Export Plug-In . SVG Version: 6.00 Build 0)  -->
<svg version="1.1" id="Слой_1" xmlns="http://www.w3.org/2000/svg" xmlns:xlink="http://www.w3.org/1999/xlink" x="0px" y="0px"
	 viewBox="0 0 30 30" style="enable-background:new 0 0 30 30;" xml:space="preserve">
<style type="text/css">
	.st0{fill:none;stroke:#000000;stroke-miterlimit:10;}
	.st1{fill-rule:evenodd;clip-rule:evenodd;fill:none;stroke:#000000;stroke-miterlimit:10;}
</style>
<g>
	<path d="M2.8,27.2l2.3-6.7c-1-1.8-1.6-3.8-1.6-5.8C3.5,8.3,8.8,3,15.2,3c6.4,0,11.7,5.2,11.7,11.7s-5.2,11.7-11.7,11.7
		c-1.9,0-3.8-0.5-5.4-1.3L2.8,27.2z M15.2,4C9.3,4,4.5,8.8,4.5,14.7c0,1.9,0.5,3.8,1.5,5.5l0.1,0.2l-1.8,5.3l5.4-1.7l0.2,0.1
		c1.6,0.9,3.4,1.3,5.2,1.3c5.9,0,10.7-4.8,10.7-10.7C25.9,8.8,21.1,4,15.2,4z M18.2,20.8c-0.5,0-1.3-0.2-3-1
		c-1.8-0.8-3.5-2.4-4.9-4.6c-0.4-0.6-1.2-1.9-1.2-3.4c0.1-1.5,0.8-2.3,1.2-2.6c0.5-0.5,1-0.5,1.2-0.5c0.1,0,0.2,0,0.3,0
		c0.1,0,0.2,0,0.2,0c0.4,0,0.8,0.1,1.1,0.8l0.3,0.8c0.2,0.6,0.5,1.2,0.5,1.4c0.2,0.3,0.1,0.7,0,0.9c-0.1,0.2-0.2,0.4-0.4,0.6
		l-0.2,0.2c-0.1,0.1-0.2,0.3-0.3,0.3c0,0,0,0,0,0c0.2,0.4,0.7,1.2,1.4,1.9c0.8,0.8,1.5,1.1,1.9,1.3c0.1,0,0.2,0.1,0.2,0.1
		c0,0,0,0,0,0c0.3-0.3,0.7-0.8,0.9-1c0.4-0.6,1-0.4,1.2-0.3c0.3,0.1,1.9,1,2,1l0.1,0.1c0.2,0.1,0.5,0.2,0.6,0.5
		c0.2,0.4,0.1,1.2-0.2,1.8c-0.3,0.9-1.7,1.6-2.4,1.6c-0.1,0-0.1,0-0.2,0C18.5,20.8,18.4,20.8,18.2,20.8z M11.5,9.7
		c-0.1,0-0.2,0-0.4,0.2c-0.4,0.4-0.9,0.9-0.9,2c0,1.1,0.7,2.3,1,2.7l0.1,0.1c1.2,2,2.8,3.5,4.4,4.2c2.2,1,2.6,0.9,2.9,0.8
		c0.1,0,0.2,0,0.3,0c0.4,0,1.4-0.6,1.5-1c0.2-0.4,0.2-0.7,0.2-0.9c0,0-0.1-0.1-0.1-0.1l-0.2-0.1c-0.5-0.3-1.7-0.9-1.9-1
		c0,0-0.1,0-0.1,0c-0.3,0.4-0.9,1.1-1,1.1c-0.3,0.4-0.7,0.4-1.2,0.1c0,0-0.1,0-0.2-0.1c-0.4-0.2-1.2-0.6-2.2-1.5
		c-0.8-0.8-1.4-1.8-1.6-2.2c-0.3-0.6,0.1-1,0.2-1.2c0.1-0.1,0.2-0.2,0.3-0.3l0.2-0.2c0.1-0.1,0.1-0.2,0.2-0.3l0-0.1
		c-0.1-0.1-0.3-0.8-0.6-1.5L12.2,10c-0.1-0.2-0.1-0.2-0.1-0.2c-0.2,0-0.3,0-0.4,0C11.6,9.8,11.6,9.7,11.5,9.7
		C11.5,9.7,11.5,9.7,11.5,9.7z"/>
</g>
</svg>
